dataanalysis
…
15986
2020
Singapore

15773
2021
Qatar

`summarise()` has grouped output by 'Measurement.Year'. You can override using
the `.groups` argument.

# A tibble: 344 × 3
# Groups:   Measurement.Year [12]
   Measurement.Year WHO.Country.Name Frequency
              <int> <chr>                <int>
 1             2010 Austria                103
 2             2010 Belgium                 41
 3             2010 Bulgaria                16
 4             2010 Croatia                  4
 5             2010 Cyprus                   2
 6             2010 Czechia                 59
 7             2010 Denmark                  4
 8             2010 Estonia                  7
 9             2010 Finland                 18
10             2010 France                 304
# ℹ 334 more rows
…
df_region <- subset(df, select=c(Measurement.Year, WHO.Region))

# Create a new data frame with counts for each combination of Year and Country
df_region <- df_region %>%
  group_by(Measurement.Year, WHO.Region) %>%
  summarize(Frequency = n())

# Display the resulting data frame
print(df_region)

`summarise()` has grouped output by 'Measurement.Year'. You can override using
the `.groups` argument.

# A tibble: 48 × 3
# Groups:   Measurement.Year [12]
   Measurement.Year WHO.Region             Frequency
              <int> <chr>                      <int>
 1             2010 European Region             1685
 2             2010 Region of the Americas         5
 3             2010 South East Asia Region        80
 4             2010 Western Pacific Region         1
 5             2011 European Region                1
 6             2011 Region of the Americas         7
 7             2011 South East Asia Region        94
 8             2011 Western Pacific Region         1
 9             2012 European Region                1
10             2012 Region of the Americas         6
# ℹ 38 more rows
…
